…
``` r
knnFit <- knn(train = select(irisDataTrain, Sepal.Length, Sepal.Width),
              test = select(irisDataTest, Sepal.Length, Sepal.Width),
              cl = irisDataTrain$Species,
              k = 3)
fitInfo <- as_tibble(data.frame(knnFit, select(irisDataTest, Species, Sepal.Length, Sepal.Width)))
fitInfo
```

    ## # A tibble: 30 × 4
    ##    knnFit     Species    Sepal.Length Sepal.Width
    ##    <fct>      <fct>             <dbl>       <dbl>
    ##  1 setosa     setosa              4.9         3.1
    ##  2 setosa     setosa              5.1         3.5
    ##  3 setosa     setosa              4.7         3.2
    ##  4 setosa     setosa              5.5         3.5
    ##  5 versicolor setosa              4.5         2.3
    ##  6 setosa     setosa              4.4         3.2
    ##  7 setosa     setosa              5.3         3.7
    ##  8 virginica  versicolor          7           3.2
    ##  9 virginica  versicolor          6.4         3.2
    ## 10 versicolor versicolor          5           2  
    ## # … with 20 more rows
…
