…
Below is a quick example of mutate() with if_else()/

First lets generate some random numbers between 0 and 1

``` r
testData<-runif(100,min=0,max=1)
testData<-as.tibble(testData)
names(testData)<-"Values"
testData
```

    ## # A tibble: 100 × 1
    ##    Values
    ##     <dbl>
    ##  1  0.665
    ##  2  0.841
    ##  3  0.437
    ##  4  0.840
    ##  5  0.280
    ##  6  0.222
    ##  7  0.761
    ##  8  0.705
    ##  9  0.904
    ## 10  0.849
    ## # … with 90 more rows

Now if we wanted to add a new binary variable that is 1 if the values is
greater than or equal to 0.50 and 0 if less than 0.50, we can easily do
this in one statement.

``` r
testData <- testData %>% mutate(ValuesGTEOneHalf = if_else(Values >= 0.5,1,0))
testData
```

    ## # A tibble: 100 × 2
    ##    Values ValuesGTEOneHalf
    ##     <dbl>            <dbl>
    ##  1  0.665                1
    ##  2  0.841                1
    ##  3  0.437                0
    ##  4  0.840                1
    ##  5  0.280                0
    ##  6  0.222                0
    ##  7  0.761                1
    ##  8  0.705                1
    ##  9  0.904                1
    ## 10  0.849                1
    ## # … with 90 more rows
…
